<?xml version="1.0" standalone="no"?>
<!DOCTYPE svg PUBLIC "-//W3C//DTD SVG 20010904//EN"
 "http://www.w3.org/TR/2001/REC-SVG-20010904/DTD/svg10.dtd">
<svg version="1.0" xmlns="http://www.w3.org/2000/svg"
 width="1833.000000pt" height="1833.000000pt" viewBox="0 0 1833.000000 1833.000000"
 preserveAspectRatio="xMidYMid meet">
<metadata>
Created by potrace 1.11, written by Peter Selinger 2001-2013
</metadata>
<g transform="translate(0.000000,1833.000000) scale(0.100000,-0.100000)"
fill="#000000" stroke="none">
<path d="M5384 15449 c-229 -38 -389 -150 -482 -338 -45 -90 -47 -98 -46 -175
3 -184 94 -310 265 -369 l64 -22 1343 -3 c738 -1 1342 -5 1342 -8 0 -4 -399
-667 -887 -1475 l-887 -1469 -1555 0 c-1010 0 -1578 -4 -1619 -10 -237 -39
-395 -148 -490 -339 -45 -90 -47 -98 -46 -175 3 -184 94 -310 265 -369 l64
-22 1412 -5 1411 -5 -2064 -3420 -2065 -3420 -442 -6 -442 -5 -90 -28 c-161
-49 -263 -120 -344 -241 -76 -114 -91 -164 -91 -304 0 -214 40 -292 173 -333
l72 -23 7140 0 7140 0 78 23 c200 58 334 170 413 348 24 54 26 67 21 149 -11
171 -49 280 -115 335 -20 17 -66 41 -102 53 l-65 22 -1676 5 -1676 5 3239
5310 c2978 4883 3628 5959 3628 6000 0 8 5 15 10 15 6 0 10 14 10 30 0 19 5
30 14 30 17 0 29 83 20 139 -5 31 -11 41 -25 41 -12 0 -19 7 -19 20 0 15 -7
20 -25 20 -16 0 -25 6 -25 15 0 13 -211 15 -1842 15 -1205 0 -1865 -4 -1906
-10 -237 -39 -395 -148 -490 -339 -45 -90 -47 -98 -46 -175 3 -184 94 -310
265 -369 l64 -22 1343 -3 c738 -1 1342 -5 1342 -8 0 -18 -5745 -9521 -5748
-9506 -1 9 -270 2286 -597 5058 -327 2773 -597 5061 -601 5085 -8 61 -24 109
-35 109 -5 0 -9 7 -9 15 0 16 -46 65 -61 65 -5 0 -19 9 -31 20 -12 11 -29 20
-38 20 -8 0 -24 6 -35 14 -11 7 -35 17 -52 21 -18 3 -33 11 -33 16 0 12 -4266
10 -4336 -2z m4414 -6265 c359 -2946 651 -5358 649 -5360 -2 -2 -1833 -3
-4069 -2 l-4065 3 3266 5357 3266 5357 150 1 150 0 653 -5356z"/>
</g>
</svg>
